{
    "generationTool": "pwabuilder-api",
    "generationToolVersion": "2.0.1-rc.0",
    "platformId": "web",
    "platformPackage": "pwabuilder-web",
    "platformVersion": "2.0.0-rc.2",
    "generatedFrom": "Website Wizard",
    "generationDate": "2018-04-14 07:03:19 Z"
}